{
    "version": "https://jsonfeed.org/version/1",
    "title": "Heating Installations Winnipeg",
    "description": "",
    "home_page_url": "https://automaniacmrk.gitlab.io/heatinginstallations",
    "feed_url": "https://automaniacmrk.gitlab.io/heatinginstallations/feed.json",
    "user_comment": "",
    "author": {
        "name": "Plumber"
    },
    "items": [
        {
            "id": "https://automaniacmrk.gitlab.io/heatinginstallations/what-does-installation-of-a-central-heating-system-involve.html",
            "url": "https://automaniacmrk.gitlab.io/heatinginstallations/what-does-installation-of-a-central-heating-system-involve.html",
            "title": "What Does Installation Of A Central Heating System Involve?",
            "summary": "What Does Installation Of A Central Heating System Involve? The most common heating option for home heating is central heating. Instead of installing a heating system for each room individually, you can heat the entire house with a network of ducts. Installation can be complicated.",
            "content_html": "<h2>What Does Installation Of A Central Heating System Involve?</h2>\n<p>The most common heating option for home heating is central heating. Instead of <a href=\"https://shortysplumbing.ca/heating-installations/\">installing a heating system</a> for each room individually, you can heat the entire house with a network of ducts. Installation can be complicated. Are you ready to schedule your central heating system installation? Converting from a different heating system to a central heating system? Let's discuss what you can expect.</p>\n<p><img loading=\"lazy\" src=\"https://www.carjon.com/sites/default/files/styles/sc_940x470_mc/public/blog/shutterstock_2050132877.jpg?itok=AEdGDqrI\" data-is-external-image=\"true\"  alt=\"Heating Installations\" data-cke-saved-src=\" https://www.carjon.com/sites/default/files/styles/sc_940x470_mc/public/blog/shutterstock_2050132877.jpg?itok=AEdGDqrI\"></p>\n<h2>These are some key points to remember:</h2>\n<ul>\n<li>A new heating or A/C system can lower your annual energy costs by up to 30% or more.</li>\n<li>Equipment upgrades are more affordable thanks to generous financing, rebates from manufacturers and incentives for saving energy.</li>\n<li>Sometimes, new equipment can be smaller which frees up more space within your home.</li>\n</ul>\n<h2>Understanding Your Options</h2>\n<p>There are many options when it comes heating your house. There are many options available from Griffith, including the following:</p>\n<ul>\n<li>Gas furnaces</li>\n<li>Oil furnaces</li>\n<li>Heating systems central</li>\n<li>Boilers</li>\n</ul>\n<p>These systems can be enhanced with whole-home installation to improve indoor air quality. You might also consider other options, such as a humidity control or mechanical ventilation system when upgrading your furnace.</p>",
            "author": {
                "name": "Plumber"
            },
            "tags": [
            ],
            "date_published": "2022-06-24T07:55:18-07:00",
            "date_modified": "2022-07-05T07:01:36-07:00"
        },
        {
            "id": "https://automaniacmrk.gitlab.io/heatinginstallations/finding-the-right-heater-installation.html",
            "url": "https://automaniacmrk.gitlab.io/heatinginstallations/finding-the-right-heater-installation.html",
            "title": "Finding The Right Heater Installation",
            "summary": "Finding The Right Heater Installation If you're not sure what type of heater installation is right for your home, don't worry. Talk to us about the heating system that best suits your budget and needs. The following are some of the most popular heater models:&hellip;",
            "content_html": "<h2>Finding The Right Heater Installation</h2>\n<p>If you're not sure what type of heater installation is right for your home, don't worry. Talk to us about the heating system that best suits your budget and needs.</p>\n<p>The following are some of the most popular heater models:</p>\n<ul>\n<li>Furnaces: A central heating system that heats air using oil, gas or electricity. The heated air circulates through the house.</li>\n<li>Heat pumps: Heat pumps are electric heat generators that use electricity to transfer heat between places, rather than burning it. If you need a heating or cooling unit, this type of setup is for you.</li>\n<li>Ductless mini-split systems: Ductless mini-split systems are a type of heating installation that provides efficient heating without needing traditional HVAC ductwork.</li>\n</ul>\n<p>A heater repair may be an option if your heating system is not yet very old. Our trustworthy team will provide the most cost-effective solution to restore your heating.</p>\n<p><img loading=\"lazy\" src=\"https://image.shutterstock.com/image-photo/central-heating-system-260nw-1006920172.jpg\" data-is-external-image=\"true\"  alt=\"Heating Installations\" data-cke-saved-src=\" https://image.shutterstock.com/image-photo/central-heating-system-260nw-1006920172.jpg\"></p>\n<h2>In-Floor Radiant</h2>\n<p>Radiant systems provide even heat throughout the house. Most in-floor radiant systems use plastic water tubing inside concrete slab floors or attached to the bottom of wood floors. These systems are quieter than other heating methods. In-floor radiant heating systems can also be used with stone or ceramic tile materials by using electrical wiring.</p>\n<p>While they are slow to heat up and adjust to temperature changes, in-floor radiant systems are energy efficient and provide heated comfort to every inch of the house.</p>\n<ul>\n<li>Disadvantage: If maintenance problems emerge, it's difficult to access the hidden piping system and it might require tearing down flooring</li>\n</ul>\n<h2>Selecting The Right Heating Equipment For Your Needs</h2>\n<p>An outdated or inaccurately sized furnace will waste money and leave your home uncomfortably chilly as temperatures drop. If you have ever felt the need to wrap up in sweaters to stay warm indoors, it may be time to consider today's <a href=\"https://shortysplumbing.ca/heating-installations/\">advanced heating installations options</a> available from Shorty's Heating and Plumbing.</p>\n<p>Because they are less expensive and more efficient than the fuel oil model, gas furnaces have a higher popularity. To prevent corrosion and leakage, fuel oil should be kept in an appropriate container. Fuel oil, being a liquid has the tendency to block the combustion chamber's nozzles, making it messy and costly to clean.</p>",
            "author": {
                "name": "Plumber"
            },
            "tags": [
            ],
            "date_published": "2022-06-24T07:54:31-07:00",
            "date_modified": "2022-07-04T19:20:00-07:00"
        },
        {
            "id": "https://automaniacmrk.gitlab.io/heatinginstallations/central-heat-and-air-installation.html",
            "url": "https://automaniacmrk.gitlab.io/heatinginstallations/central-heat-and-air-installation.html",
            "title": "Central Heat and Air Installation",
            "summary": "When installing central heating and cooling systems in your house, there are many options. There are four main types of heating systems: heat pumps, heat pumps and ducted warm-air systems. Each heat and air unit has a specific use case and you will want to&hellip;",
            "content_html": "<p><img loading=\"lazy\" src=\"https://www.presidentialheatandair.com/wp-content/uploads/2018/10/an-hvac-contractor-working-with-a-centralized-water-heating-system-in-a-Gaithersburg-MD-home-300x200.jpg\" data-is-external-image=\"true\"  alt=\"Heating Installations\" data-cke-saved-src=\" https://www.presidentialheatandair.com/wp-content/uploads/2018/10/an-hvac-contractor-working-with-a-centralized-water-heating-system-in-a-Gaithersburg-MD-home-300x200.jpg\"></p>\n<h2>Central Heat and Air Installation</h2>\n<p>When<a href=\"https://shortysplumbing.ca/heating-installations/\"> installing central heating</a> and cooling systems in your house, there are many options. There are four main types of heating systems: heat pumps, heat pumps and ducted warm-air systems. Each heat and air unit has a specific use case and you will want to talk to a reliable HVAC contractor to determine which system will be best for installation in your home. Each HVAC system costs can range from more affordable to an expensive installation price depending on the size of your home and how energy efficient the new heating unit is along with a few other factors.</p>\n<h2>Gas And Oil Furnace Replacements:</h2>\n<p>Many homeowners have never had the opportunity to select the heating system in their home. When they bought the home, it was either the one that the builder chose for them - we're all familiar with the term \"builder's grade\"! Perhaps the previous homeowner selected the heating system. The new, high-efficiency heating systems of today offer better control and technology to ensure optimal comfort. They also reduce your monthly energy bill. Another popular feature of modern high efficiency heating systems among homeowners is that they operate significantly quieter than old heaters. Call to have a Shorty's Heating and Plumbing visit your home and discuss potential solutions for your home. Also, we offer oil-to-gas conversions</p>\n<p><img loading=\"lazy\" src=\"https://www.thebeijinger.com/sites/default/files/styles/large/public/centheating.png\" data-is-external-image=\"true\"  alt=\"Heating Installations\" data-cke-saved-src=\" https://www.thebeijinger.com/sites/default/files/styles/large/public/centheating.png\"></p>\n<h2>Make an appointment</h2>\n<p>Once you choose an HVAC professional to install your central heating system, you'll need to schedule an initial appointment. An HVAC technician will come to your home to assess the space that needs to be heated. At this appointment, they'll be able to determine what size furnace is the right option for your home, since too large or too small can lead to high heating bills and poor heating. If you don't already have a duct system installed, they can determine how the ducts will be installed. If you have central air conditioning and a furnace, these ducts can also be used to channel your summer air.</p>",
            "author": {
                "name": "Plumber"
            },
            "tags": [
            ],
            "date_published": "2022-06-24T07:54:06-07:00",
            "date_modified": "2022-07-04T08:24:12-07:00"
        },
        {
            "id": "https://automaniacmrk.gitlab.io/heatinginstallations/heat-furnace-installation.html",
            "url": "https://automaniacmrk.gitlab.io/heatinginstallations/heat-furnace-installation.html",
            "title": "Heat Furnace Installation",
            "summary": "Heat Furnace Installation The furnace is made up of many components, including the heat exchanger and blower as well as burners and controls. A new gas furnace or oil furnace system uses a main gas line or oil reserve tank to create heat for your&hellip;",
            "content_html": "<h2><img loading=\"lazy\" src=\"https://i0.wp.com/cielowigle.com/wp-content/uploads/2020/10/Furnace-and-Boiler-Based-Heating-system.jpg\" data-is-external-image=\"true\"  alt=\"Heating Installations\" data-cke-saved-src=\" https://i0.wp.com/cielowigle.com/wp-content/uploads/2020/10/Furnace-and-Boiler-Based-Heating-system.jpg\"></h2>\n<h2>Heat Furnace Installation</h2>\n<p>The furnace is made up of many components, including the heat exchanger and blower as well as burners and controls. A new gas furnace or oil furnace system uses a main gas line or oil reserve tank to create heat for your home. A more energy-efficient electric furnace may also be an option for homeowners. A gas furnace, also referred to as a forced-air heating system, fires when the thermostat drops below the programmed temperature. After the thermostat drops below the set temperature, it ignites a burner. As heat is created inside the chamber, it moves on to the heat exchanger then through the home's ductwork to individual rooms. Gases are expelled from the home through a flue.</p>\n<p>Know more about the <a href=\"https://shortysplumbing.ca/heating-installations/\">most affordabe heating installations and best furnace units</a> that work for your home and usually work well paired with a new central air conditioner unit.</p>\n<h2>You can size your heating and home.</h2>\n<p>With the help of a certified professional, the first thing needed is to size the home so that you buy a system that will do the job. If you purchase a large boiler, it will not only cost you more upfront but also result in higher heating bills. At the end of the day, you do not want to spend money on a system that is too small to warm your home or too large and wastes precious heat.</p>\n<p>To help you in understanding the sizing process, there are free cost calculators available online that you can use based on several factors. With this information, you can compare it to the contractors estimates to be sure you are both on the right track to buying the central heating system that works best for your home.</p>",
            "author": {
                "name": "Plumber"
            },
            "tags": [
            ],
            "date_published": "2022-06-24T07:53:37-07:00",
            "date_modified": "2022-07-03T20:51:21-07:00"
        },
        {
            "id": "https://automaniacmrk.gitlab.io/heatinginstallations/heating-installations.html",
            "url": "https://automaniacmrk.gitlab.io/heatinginstallations/heating-installations.html",
            "title": "Heating Installations",
            "summary": "Heating Installations Furnaces A central furnace is the primary source of heat for most North American homes. A furnace works by blowing heated air through ducts that deliver the warm air to rooms throughout the house via air registers or grills. This type of heating&hellip;",
            "content_html": "<h1>Heating Installations</h1>\n<h2><img loading=\"lazy\" src=\"https://www.servicechampions.net/wp-content/uploads/2018/02/Service-Champions-Norcal-7-Home-Heating-Systems-Blog-Image.jpg\" data-is-external-image=\"true\"  alt=\"Heating Installations\" width=\"80%\" height=\"auto\"></h2>\n<h2>Furnaces</h2>\n<p>A central furnace is the primary source of heat for most North American homes. A furnace works by blowing heated air through ducts that deliver the warm air to rooms throughout the house via air registers or grills. This type of heating system is called a ducted warm-air or forced warm-air distribution system. It can be powered by electricity, natural gas, or fuel oil.</p>\n<p>The fuel and air are mixed together in a furnace that is either oil or gas-fired. The flames heat a metal heat exchanger where the heat is transferred to air. The furnace fan pushes air through the heat exchanging unit and forces it through the ductwork. At the furnace, combustion products are vented out of the building through a flue pipe. An older \"atmospheric furnace\" vented to the atmosphere and used about 30% of its fuel energy to heat the chimney. Current minimum-efficiency furnaces reduce this waste substantially by using an \"inducer\" fan to pull the exhaust gases through the heat exchanger and induce draft in the chimney. \"Condensing\" furnaces are designed to reclaim much of this escaping heat by cooling exhaust gases well below 140degF, where water vapor in the exhaust condenses into water. This is the primary feature of a high-efficiency furnace (or boiler). They typically have a pipe that is made of plastic and vent via a sidewall.</p>\n<p>New furnace standards are currently under development by the U.S. Department of Energy, and are due to be finalized in the spring of 2016. Since 1987, the current furnace standards were not updated.</p>\n<p>The heating system controls control when various parts of the heating system are turned on or off. From your perspective, the thermostat is the most crucial control. It turns on the heating system or the distribution system to maintain comfort. One thermostat is typical for forced air systems. However, there are many other controls inside a heating system. These include \"high limit\" switches, which are part of a critical, but invisible, set of safety controls.</p>\n<h2>Natural Gas Space Heaters</h2>\n<p>Gas-fired, direct heating is also popular in some regions. This includes wall-mounted, free-standing, and floor furnaces, all characterized by their lack of ductwork and relatively small heat output. They are best used for heating one room because they do not have ducts. Heating multiple rooms requires that the doors between them be open. If this is not possible, a different heating method must be used. Better models use \"sealed combustion air\" systems, with pipes installed through the wall to both provide combustion air and carry off the combustion products. They can be acceptable for buildings with large temperatures, such as cabins or other structures that have multiple rooms. The models can be fired with natural gas or propane, and some burn kerosene.</p>\n<h2><img loading=\"lazy\" src=\"http://www.efficiencymaine.com/docs/Munchkin-with-IT-225x300.jpg\" data-is-external-image=\"true\"  alt=\"Heating Installations\" width=\"80%\" height=\"auto\"></h2>\n<h2>In-Floor Radiant</h2>\n<p>Radiant systems provide even heat throughout the house. In-floor radiant systems are made of plastic tubing that is attached to wood floors, or placed inside concrete slab floors. They are very quiet compared to other home heating systems. In-floor radiant heating systems can also be used with stone or ceramic tile materials by using electrical wiring.</p>\n<p>While they are slow to heat up and adjust to temperature changes, in-floor radiant systems are energy efficient and provide heated comfort to every inch of the house.</p>\n<ul>\n<li>Disadvantage: If maintenance problems emerge, it's difficult to access the hidden piping system and it might require tearing down flooring</li>\n</ul>\n<h2>Why choose Ais for your Heating Replacement &amp; Installation?</h2>\n<p>Selecting AIS for your heating installation and replacement service is a no-brainer! Californians have relied on our team for years to provide them with reliable, efficient heating services. You will always get the following:</p>\n<ul>\n<li>Certified technicians carefully trained in the most current industry standards</li>\n<li>To inform you about our recommendations for heating units, we offer free estimates and inspections on the spot</li>\n<li>Up-front, honest pricing on every job</li>\n<li>An energy audit can help you choose the right heating system for your house</li>\n<li>Solutions for financing that fit your financial needs</li>\n<li>Performance guarantee certifying you always receive the best quality of work</li>\n</ul>\n<h2><img loading=\"lazy\" src=\"https://www.supplyht.com/ext/resources/SHT/2017/April/03-sht0417_sieg_fig_3.jpg?t=1493646782&amp;width=900\" data-is-external-image=\"true\"  alt=\"Heating Installations\" width=\"80%\" height=\"auto\"></h2>\n<h2>You can size your heating and home.</h2>\n<p>First, you need to measure your home with the assistance of a professional. This will allow you to choose the right system for the job. If you purchase a large boiler, it will not only cost you more upfront but also result in higher heating bills. At the end of the day, you do not want to spend money on a system that is too small to warm your home or too large and wastes precious heat.</p>\n<p>There are many cost calculators online available that can help you understand the process of sizing. They take into account a variety of factors. With this information, you can compare it to the contractors estimates to be sure you are both on the right track to buying the central heating system that works best for your home.</p>\n<h2>Shorty's Heating and Plumbing Furnace Installation</h2>\n<p>Once the furnace system is correctly designed and home conditions have been assessed, the installation can start. An inspection is required to verify that plans accurately reflect actual construction conditions. For retrofit jobs, we evaluate the existing air distribution system to identify duct work leaks, gaps, breeches, and loose connections.</p>\n<p>The most recent sizing formulas will be used by our team to calculate the heat energy needed to satisfy the indoor load under the harshest winter conditions.</p>\n<ul>\n<li>Size of the home</li>\n<li>Dimensions of the rooms</li>\n<li>Type and number of windows</li>\n<li>There are many doors</li>\n<li>Insulation for crawl spaces and attic</li>\n<li>Wall insulation</li>\n</ul>\n<p>It is our goal to make it easy for you. Improper load sizing can lead to high fuel bills, decreased indoor comfort and more wear of vital components.</p>\n<h2><img loading=\"lazy\" src=\"https://www.watts.com/dfsmedia/0533dbba17714b1ab581ab07a4cbb521/1051-50060/rad-system\" data-is-external-image=\"true\"  alt=\"Heating Installations\" width=\"80%\" height=\"auto\"></h2>\n<h2>Gas-fired Heaters Unvented: Bad Idea</h2>\n<p>Gas or kerosene space heaters that do not have an exhaust vent have been sold for decades, but we strongly discourage their use for health and safety reasons. Known as \"vent-free\" gas heating appliances by manufacturers, they include wall-mounted and free-standing heaters as well as open-flame gas fireplaces with ceramic logs that are not actually connected to a chimney. The manufacturers claim the products are safe because of their high combustion efficiency. This claim can only be made if a window is open nearby for fresh air. Otherwise, supplemental heat will not work. There are two dangers: exposure to combustion products (as discussed under Ventilation) and oxygen depletion (heating devices must have oxygen sensors). Because of these hazards, at least five states (California, Minnesota, Massachusetts, Montana, and Alaska) prohibit their use in homes, and many cities in the United States and Canada have banned them as well.</p>\n<h2>Furnace Installation</h2>\n<p>A furnace is comprised of several components including a heat exchanger, blower, burners, and controls. A new gas furnace or oil furnace system uses a main gas line or oil reserve tank to create heat for your home. A more energy-efficient electric furnace may also be an option for homeowners. A gas furnace, also referred to as a forced-air heating system, fires when the thermostat drops below the programmed temperature. After the thermostat drops below the set temperature, it ignites a burner. As heat is created inside the chamber, it moves on to the heat exchanger then through the home's ductwork to individual rooms. A flue is used to expel gases from the house.</p>\n<p>Learn more about which furnace unit is the best and most cost-effective for you. They are often paired well with central air conditioner units.</p>\n<h2><img loading=\"lazy\" src=\"https://www.servicechampions.net/wp-content/uploads/2018/02/Service-Champions-Norcal-7-Home-Heating-Systems-Blog-Image.jpg\" data-is-external-image=\"true\"  alt=\"Heating Installations\" width=\"80%\" height=\"auto\"></h2>\n<h2>Are You Ready to Replace Your Heating Systems?</h2>\n<p>Shorty's Heating and Plumbing experts can help you get the warmth and comfort you need from your heating system. How can you know when it is time to replace your heating system? There are many indicators that can help you determine when it is time to replace. We can help.</p>\n<p>Here are six signs you need to replace your heating system in your house:</p>\n<ul>\n<li>You have hot and cold spots in house.</li>\n<li>The system can be either constantly or short-cycled.</li>\n<li>Your energy bills have skyrocketed.</li>\n<li>You are constantly calling for repairs.</li>\n</ul>\n<p>You should definitely consider switching to a different system if you have checked at least two of these boxes.</p>\n<h2>Select Your System... and the Installation Crew</h2>\n<p>Every installation process begins with choosing the heating system you need. The most common choice is the gas furnace, but you also have ground and air source heat pumps and electric heating systems. Boilers are another option. Although boilers are considered central heating systems they can also be used as gas furnaces. Boilers are better suited for colder homes or those that require zone heating. There are also electric furnaces that could be an option, as opposed to gas furnaces, though electric furnaces can be more costly.</p>\n<p>Once you choose your system, you can choose the HVAC company to install the system. It helps to find a local company, as they'll be most familiar with your climate. Open availability is also handy. Check reviews for local HVAC companies to find a trustworthy company to install your new system.</p>\n<h2><img loading=\"lazy\" src=\"http://www.merzac.com/sites/default/files/slider-carbon-monoxide-10252021v1.jpg\" data-is-external-image=\"true\"  alt=\"Heating Installations\" width=\"80%\" height=\"auto\"></h2>\n<h2>Heating Repair And Maintenance</h2>\n<p>Does your heat pump require frequent repair? Does it no longer meet your heating and cooling expectations? If you already have a heat pump installed, you need to monitor its performance from time to time. Professional inspection is required for any signs of failure. There may be a point when the repairs are too expensive, your whole system stops working as it should or your equipment becomes worn out. Our heat pump repair service is top-notch. We can make sure that your home has everything it needs for excellent year-round comfort.</p>\n<p>There is simply no getting around the fact that a heat pump installation must be completed by an experienced and knowledgeable professional heat pump installation technician. You are making a significant investment in your heat pump. It is important to ensure that the parts of the system comply with all industry standards, such as the refrigerant charge. Heat pump experts are familiar with heat pumps and will be glad to answer any questions you might have. Our technicians can ensure that you have the right size heat pump for your home so it provides excellent comfort while keeping your energy costs low.</p>\n<h2>How Can I Tell When My Furnace Is Going Out?</h2>\n<p>Many of our customers contact us with questions about how to know when it's time to put in a new furnace.</p>\n<p>Here is some background information to help you assess the situation before contacting Shorty's Heating and Plumbing for heating installation service:</p>\n<ul>\n<li>Your furnace is old and just about past its useful work-life: Furnaces last between 15 to 30 years when cared for properly -- with regular maintenance, inspections, and repairs. Your heating system could fail sooner if it was neglected by the previous owner.</li>\n<li>The cost of energy is rising: Homeowners often notice an increase in fuel bills and realize that the heating system may be out of balance. Over time, older systems become less efficient. Remember that furnaces made today are more efficient and you will start to see a decrease in your monthly bills once Shorty's Heating and Plumbing has installed your system.</li>\n</ul>\n<h2><img loading=\"lazy\" src=\"https://www.presidentialheatandair.com/wp-content/uploads/2018/10/an-hvac-contractor-working-with-a-centralized-water-heating-system-in-a-Gaithersburg-MD-home-300x200.jpg\" data-is-external-image=\"true\"  alt=\"Heating Installations\" width=\"80%\" height=\"auto\"></h2>\n<h2>Electric Space Heaters</h2>\n<p>Portable (plug-in) electric heaters are inexpensive to buy, but costly to use. This resistive heater ranges from \"oil-filled\", to \"quartz infrared\" models. They convert electric current from the wall socket directly into heat, like a toaster or clothes iron. It takes a lot more electricity to provide the same heat as natural gas and oil. The 1,500-watt plug-in heater uses almost all the capacity of the 15-amp branch circuit. Adding more load to the circuit breaker will cause it to trip or blow out the fuse. It costs 1.5 times the cost of electricity to run a 1,500-watt heater for one hour. The national average electricity rates are 12C/kWh. This heater will cost you 18C/ hour and quickly exceed its cost of purchase. It is also the best option for occasional use when other options would need major investment to upgrade ductwork in a particular area. Remember that electric resistance heat can be very expensive and is not recommended.</p>\n<p>Another type of resistive heating is \"Electric Baseboard Heat\", which is similar to a space heater but is hardwired. The two main advantages of this type of resistive heating are that it can be installed quickly and inexpensively, as well as the ability to turn off heat in areas not being used. As with all resistive systems operating costs are usually very high unless the house has \"super insulation.\"</p>\n<h2>Heat Pump Installation</h2>\n<p>If you're looking for both heating and cooling, heat pumps can be a great choice. They can deliver comfort to your home year round and are one of the most efficient heating and cooling methods. They push hot air out of your home during the warmer months and bring warm air in during the cooler months, making them extremely efficient and well-suited to SoCal homes.</p>\n<p>While a heat pump may seem like a bigger investment in the beginning the savings on your energy bills quickly add up. The heat pumps tend to be quieter than AC units or furnaces, and they require very little maintenance other than an annual check by local HVAC professionals.</p>\n<p>Shorty's Heating and Plumbing can help you decide which heating product is best for your home. The heating specialists at Shorty's Heating and Plumbing can assist you in choosing the right heating method for your particular home.</p>\n<p>Our goal is to provide consistent, high-quality service and products in a timely fashion. Independently owned, our company's owner has more than 40 years experience in heating and cooling. When we hire technicians, we work to hire the best in the business, so we make sure that all background checks are clear and that our experts have the right certifications and training. Our high-quality service has allowed us to outlive many other HVAC businesses in the area.</p>\n<p>Ventura County</p>\n<p>San Fernando Valley</p>\n<ul>\n<li>Furnace Installation</li>\n<li>San Fernando Valley</li>\n<li>Ventura</li>\n</ul>\n<h2><img loading=\"lazy\" src=\"https://modernize.com/wp-content/uploads/2015/10/underfloor-heating.jpg\" data-is-external-image=\"true\"  alt=\"Heating Installations\" width=\"80%\" height=\"auto\"></h2>\n<h2>Active Solar Heating</h2>\n<p>A more modern home heating system, active solar heating, uses solar energy to heat a fluid and transfers solar heat directly into the interior space or a storage system for later use. Radiant heating systems, heat pumps and boilers are often added to these. Active solar heating systems are able to distribute heat by using radiant floors, hot water baseboards and a central forced air system.</p>\n<p>Unfortunately, active solar systems still rely on other home heating systems to be 100% efficient.</p>\n<ul>\n<li>Advantage: Traditional heating systems are still required to run active solar systems</li>\n</ul>\n<h2>How does central heating system installation work?</h2>\n<p>Central heating systems involve a gas furnace that heats the air that passes over the heat exchanger and a duct system through which the heated air is forced. Installing a central heating system is a complicated process. It requires the proper installation of both the furnace and the duct system. If you're still trying to make a decision as to whether or not central heating is right for you, you might want to know what exactly goes into a central heating installation. Here's the process when you have central heating installed:</p>\n<h2><img loading=\"lazy\" src=\"https://www.cedartubs.com/images/heating/Gas-Heating-System-Circulation-With-4-Jets.jpg\" data-is-external-image=\"true\"  alt=\"Heating Installations\" width=\"80%\" height=\"auto\"></h2>\n<h2>Natural Gas Heating Systems</h2>\n<p>Natural gas heat is warmer than electric heat pumps. Natural gas heat is delivered from forced-air systems at temperatures ranging from 120-140 degrees Fahrenheit. The air coming from an electric heat pumps is delivered at temperatures between 85 and 95 degrees Fahrenheit. This temperature is warm enough for heating a room but lower than the human average of 98.6 degrees Fahrenheit.</p>\n<h2>Boiler, Furnace &amp; Water Heater Replacements</h2>\n<p>The technological advancements in heating equipment have been improving year after year. Furnaces and boilers now use less fuel to deliver heat and hot water, are much easier to maintain, and are also smaller and quieter. It is important to upgrade old heating equipment in order to reduce fuel consumption and increase heating cost. While superior in many aspects, newer equipment still needs to be properly maintained to provide continued, safe operation at peak efficiency. Snow's team is available to assist you with all aspects of HVAC system installation.</p>\n<h2><img loading=\"lazy\" src=\"https://comfortbyjansen.com/images/diagram-heating.jpg\" data-is-external-image=\"true\"  alt=\"Heating Installations\" width=\"80%\" height=\"auto\"></h2>\n<h2>These are the Benefits of a Brand New Heater</h2>\n<p>We have been providing heating services to Virginia Beach residents for 40 years. Over that time, we have seen first-hand the benefits of heating replacement and heating installation. We are able to tell it by the warm smiles and handshakes that we get.</p>\n<p>All types of heating systems are installed and replaced by us.</p>\n<ul>\n<li>Furnaces</li>\n<li>Boilers</li>\n<li>Oil tanks</li>\n<li>Heat Pumps</li>\n</ul>\n<h2>Baseboard heater</h2>\n<p>Hot water baseboard heater systems, also known as hydronic systems, are a modern form of radiant heat that can be highly efficient. These systems heat water through the use of a central boiler. The water is then circulated via a network of pipes to low profile baseboard heating units. They are an updated version of the old upright radiator system. They help heated air rise from the baseboard unit while pushing cold air toward the unit for heating.</p>\n<ul>\n<li>Disadvantage: Boiler and hot water systems cannot be combined with air conditioning systems</li>\n</ul>\n<h2><img loading=\"lazy\" src=\"https://mydecorative.com/wp-content/uploads/2020/12/heating-system-installation.jpg\" data-is-external-image=\"true\"  alt=\"Heating Installations\" width=\"80%\" height=\"auto\"></h2>\n<h2>Gravity Air Furnace</h2>\n<p>A modern version of the traditional furnace heating system, gravity air furnaces distribute air through ducts. Gravity air furnaces let cool and warm air flow through the ducts, instead of forcing it through a blower. A furnace in the basement heats the air, which rises into the rooms through the doors, and cool air returns to the furnace via another system of cold-air return ducts.</p>\n<ul>\n<li>Disadvantage: It takes time for the temperature to adjust because the system operates on simple convection currents</li>\n</ul>\n<h2>Signs That You Need A Heating Replacement</h2>\n<p>If you regularly experience any of the following signs, it may be time for a heater replacement:</p>\n<ul>\n<li>Steadily increasing utility bills.</li>\n<li>You should avoid cold spots within your house.</li>\n<li>Strange smells or noises emanating from the unit</li>\n<li>A unit that fails to work frequently.</li>\n<li>Poor indoor air quality.</li>\n<li>Inadequate heat output.</li>\n</ul>\n<p>Looking for professional advice? The Sacramento Area's trusted technicians are happy to come and inspect your house. Our technicians will devise a plan to replace your heating system that suits both your lifestyle and budget.</p>\n<h2><img loading=\"lazy\" src=\"https://st4.depositphotos.com/1170583/21499/i/1600/depositphotos_214990312-stock-photo-home-heating-installations-boilers-pipes.jpg\" data-is-external-image=\"true\"  alt=\"Heating Installations\" width=\"80%\" height=\"auto\"></h2>\n<h2>Get More Hot Water for Your Home</h2>\n<p>We can help you upgrade to Thermo2000 TURBOMAX(r), an instantaneous, indirect water heater. It is one of the most versatile and efficient water heating systems available.</p>\n<ul>\n<li>Compatibility with other heat sources such as oil or gas</li>\n<li>Heat transfer efficiency up to 99 percent</li>\n<li>* 10-year guarantee</li>\n<li>Built to last 40 years</li>\n</ul>\n<h2>We Install:</h2>\n<ul>\n<li>Baseboards with electric motors</li>\n<li>Heat pumps</li>\n<li>Heating by forced-air</li>\n<li>Inserts for gas-heating fireplaces</li>\n</ul>\n<h2><img loading=\"lazy\" src=\"http://www.efficiencymaine.com/docs/Munchkin-with-IT-225x300.jpg\" data-is-external-image=\"true\"  alt=\"Heating Installations\" width=\"80%\" height=\"auto\"></h2>\n<h2>Knowing Your Options</h2>\n<p>You have many choices when it comes to heating your home. There are many options available from Griffith, including the following:</p>\n<ul>\n<li>Gas furnaces</li>\n<li>Oil furnaces</li>\n<li>Central heating systems</li>\n<li>Boilers</li>\n</ul>\n<p>We can also help you enhance these systems with whole-home installations for better indoor air quality. As you're upgrading your furnace, you may want to consider adding other features like a mechanical ventilation system or humidity control system.</p>",
            "author": {
                "name": "Plumber"
            },
            "tags": [
            ],
            "date_published": "2022-06-24T07:51:19-07:00",
            "date_modified": "2022-06-28T09:17:00-07:00"
        }
    ]
}
